// Jest Snapshot v1, https://goo.gl/fbAQLP

exports[`<SignIn /> SignIn показывает загрузку 1`] = `<Loading />`;

exports[`<SignIn /> SignIn рендерится без ошибок 1`] = `
<button
  className="authButtonLeft authButton"
  id="signIn"
  type="submit"
>
  <p
    className="authButtonText authButtonLeftText"
  >
    dashboard.auth.signIn
  </p>
</button>
`;
