{
  "serverId": "Server1",
  "CPU": 35,
  "MEM": 60,
  "RAM": 90,
  "Network": [
    89,
    90,
    45,
    96,
    87,
    72,
    57,
    4,
    64,
    18,
    4,
    55,
    54,
    3,
    81,
    57,
    63,
    67,
    21,
    69,
    37,
    48,
    43,
    63,
    40,
    47,
    49,
    40,
    47,
    33
  ],
  "serverState": true,
  "Specs": {
    "cpu": "i7",
    "graphics": "RTX 3080",
    "vCPU": "8",
    "ram": "16GB",
    "memory": "1TB",
    "IP": "10.12.31.23"
  }
}
