// Jest Snapshot v1, https://goo.gl/fbAQLP

exports[`<Alerts /> Alerts 1`] = `
<Dashboard
  path="dashboard.alerts"
>
  <div
    className="Main"
  >
    <div
      className="List Header"
    >
      <p />
      <p
        className="Name"
      >
        dashboard.alerts.name
      </p>
      <p>
        dashboard.alerts.server
      </p>
      <p>
        dashboard.alerts.resource
      </p>
      <p>
        dashboard.alerts.value
      </p>
      <p>
        dashboard.alerts.manage
      </p>
    </div>
    <AlertsCreate />
    <AlertList />
  </div>
</Dashboard>
`;
